<?xml version="1.0" encoding="utf-8"?>
<!-- Generator: Adobe Illustrator 23.0.2, SVG Export Plug-In . SVG Version: 6.00 Build 0)  -->
<svg version="1.1" id="Layer_1" xmlns="http://www.w3.org/2000/svg" xmlns:xlink="http://www.w3.org/1999/xlink" x="0px" y="0px"
	 viewBox="0 0 276 274.1" style="enable-background:new 0 0 276 274.1;" xml:space="preserve">
<style type="text/css">
	.st0{fill:none;stroke:#676767;stroke-width:10;stroke-linecap:round;stroke-linejoin:round;}
</style>
<title>icon</title>
<g>
	<path class="st0" d="M111.8,19.5L129,51.6c3,5.7,2.9,12.5-0.3,18.1L54,198.6c-3.4,5.9-3.4,13.2,0.2,19l22.8,37.6
		c3.4,5.6,9.4,9,15.9,9H97c10.3,0,18.6-8.3,18.6-18.6c0-4.5-1.6-8.8-4.5-12.2l-8.4-9.7c-5.6-6.5-6.1-16.1-1-23.1l91-125.6
		c3.8-5.3,4.6-12.1,2.1-18.1L175.2,9.9"/>
	<path class="st0" d="M181.8,93.1l-25.4,123.3c-0.6,2.9,0.7,5.9,3.3,7.4l47.6,27.3c3.3,1.9,4.5,6.1,2.6,9.4c-1.2,2.2-3.5,3.5-6,3.5
		h-66.2"/>
	<line class="st0" x1="13.1" y1="264.1" x2="262.9" y2="264.1"/>
	<line class="st0" x1="88.9" y1="67.7" x2="38.8" y2="153.2"/>
	<line class="st0" x1="198.2" y1="124.4" x2="180.3" y2="209.8"/>
</g>
</svg>
